simulation/qsim/Ejercicio2.msim.vcd
$comment
	File created using the following command:
		vcd file Ejercicio2.msim.vcd -direction
$end
$date
	Wed Mar 08 23:03:27 2023
$end
$version
	ModelSim Version 10.1d
$end
$timescale
	1ps
$end
$scope module Ejercicio2_vlg_vec_tst $end
$var reg 1 ! A0 $end
$var reg 1 " A1 $end
$var wire 1 # Y0 $end
$var wire 1 $ Y1 $end
$var wire 1 % Y2 $end
$var wire 1 & Y3 $end
$var wire 1 ' sampler $end
$scope module i1 $end
$var wire 1 ( gnd $end
$var wire 1 ) vcc $end
$var wire 1 * unknown $end
$var tri1 1 + devclrn $end
$var tri1 1 , devpor $end
$var tri1 1 - devoe $end
$var wire 1 . Y0~output_o $end
$var wire 1 / Y1~output_o $end
$var wire 1 0 Y2~output_o $end
$var wire 1 1 Y3~output_o $end
$var wire 1 2 A0~input_o $end
$var wire 1 3 A1~input_o $end
$var wire 1 4 Y0~0_combout $end
$var wire 1 5 Y2~0_combout $end
$var wire 1 6 Y2~1_combout $end
$var wire 1 7 Y2~2_combout $end
$upscope $end
$upscope $end
$enddefinitions $end
#0
$dumpvars
0!
0"
1#
0$
0%
0&
x'
0(
1)
x*
1+
1,
1-
1.
0/
00
01
02
03
04
05
06
07
$end
#20000
1!
12
0'
14
15
0.
1/
0#
1$
#40000
1"
0!
13
02
1'
16
05
10
0/
1%
0$
#60000
1!
12
0'
17
06
11
00
1&
0%
#80000
0"
0!
03
02
1'
04
07
1.
01
1#
0&
#100000
1!
12
0'
14
15
0.
1/
0#
1$
#120000
1"
0!
13
02
1'
16
05
10
0/
1%
0$
#140000
1!
12
0'
17
06
11
00
1&
0%
#160000
0"
0!
03
02
1'
04
07
1.
01
1#
0&
#180000
1!
12
0'
14
15
0.
1/
0#
1$
#200000
1"
0!
13
02
1'
16
05
10
0/
1%
0$
#220000
1!
12
0'
17
06
11
00
1&
0%
#240000
0"
0!
03
02
1'
04
07
1.
01
1#
0&
#260000
1!
12
0'
14
15
0.
1/
0#
1$
#280000
1"
0!
13
02
1'
16
05
10
0/
1%
0$
#300000
1!
12
0'
17
06
11
00
1&
0%
#320000
0"
0!
03
02
1'
04
07
1.
01
1#
0&
#340000
1!
12
0'
14
15
0.
1/
0#
1$
#360000
1"
0!
13
02
1'
16
05
10
0/
1%
0$
#380000
1!
12
0'
17
06
11
00
1&
0%
#400000
0"
0!
03
02
1'
04
07
1.
01
1#
0&
#420000
1!
12
0'
14
15
0.
1/
0#
1$
#440000
1"
0!
13
02
1'
16
05
10
0/
1%
0$
#460000
1!
12
0'
17
06
11
00
1&
0%
#480000
0"
0!
03
02
1'
04
07
1.
01
1#
0&
#500000
1!
12
0'
14
15
0.
1/
0#
1$
#520000
1"
0!
13
02
1'
16
05
10
0/
1%
0$
#540000
1!
12
0'
17
06
11
00
1&
0%
#560000
0"
0!
03
02
1'
04
07
1.
01
1#
0&
#580000
1!
12
0'
14
15
0.
1/
0#
1$
#600000
1"
0!
13
02
1'
16
05
10
0/
1%
0$
#620000
1!
12
0'
17
06
11
00
1&
0%
#640000
0"
0!
03
02
1'
04
07
1.
01
1#
0&
#660000
1!
12
0'
14
15
0.
1/
0#
1$
#680000
1"
0!
13
02
1'
16
05
10
0/
1%
0$
#700000
1!
12
0'
17
06
11
00
1&
0%
#720000
0"
0!
03
02
1'
04
07
1.
01
1#
0&
#740000
1!
12
0'
14
15
0.
1/
0#
1$
#760000
1"
0!
13
02
1'
16
05
10
0/
1%
0$
#780000
1!
12
0'
17
06
11
00
1&
0%
#800000
0"
0!
03
02
1'
04
07
1.
01
1#
0&
#820000
1!
12
0'
14
15
0.
1/
0#
1$
#840000
1"
0!
13
02
1'
16
05
10
0/
1%
0$
#860000
1!
12
0'
17
06
11
00
1&
0%
#880000
0"
0!
03
02
1'
04
07
1.
01
1#
0&
#900000
1!
12
0'
14
15
0.
1/
0#
1$
#920000
1"
0!
13
02
1'
16
05
10
0/
1%
0$
#940000
1!
12
0'
17
06
11
00
1&
0%
#960000
0"
0!
03
02
1'
04
07
1.
01
1#
0&
#980000
1!
12
0'
14
15
0.
1/
0#
1$
