simulation/qsim/MuxComportamental_8_1.msim.vcd
$comment
	File created using the following command:
		vcd file MuxComportamental_8_1.msim.vcd -direction
$end
$date
	Tue Mar 14 00:48:33 2023
$end
$version
	ModelSim Version 10.1d
$end
$timescale
	1ps
$end
$scope module MuxComportamental_8_1_vlg_vec_tst $end
$var reg 8 ! Dato [7:0] $end
$var reg 3 " selc [2:0] $end
$var wire 1 # f $end
$var wire 1 $ sampler $end
$scope module i1 $end
$var wire 1 % gnd $end
$var wire 1 & vcc $end
$var wire 1 ' unknown $end
$var tri1 1 ( devclrn $end
$var tri1 1 ) devpor $end
$var tri1 1 * devoe $end
$var wire 1 + f~output_o $end
$var wire 1 , selc[2]~input_o $end
$var wire 1 - Dato[7]~input_o $end
$var wire 1 . Dato[5]~input_o $end
$var wire 1 / Dato[1]~input_o $end
$var wire 1 0 selc[1]~input_o $end
$var wire 1 1 Dato[3]~input_o $end
$var wire 1 2 f~0_combout $end
$var wire 1 3 f~1_combout $end
$var wire 1 4 selc[0]~input_o $end
$var wire 1 5 Dato[6]~input_o $end
$var wire 1 6 Dato[2]~input_o $end
$var wire 1 7 Dato[0]~input_o $end
$var wire 1 8 Dato[4]~input_o $end
$var wire 1 9 f~2_combout $end
$var wire 1 : f~3_combout $end
$var wire 1 ; f~4_combout $end
$upscope $end
$upscope $end
$enddefinitions $end
#0
$dumpvars
b10101010 !
b0 "
0#
x$
0%
1&
x'
1(
1)
1*
0+
0,
1-
1.
1/
00
11
12
13
04
05
06
07
08
09
0:
0;
$end
#20000
b1 "
14
0$
1;
1+
1#
#40000
b11 "
b10 "
04
10
1$
0;
0+
0#
#60000
b11 "
14
0$
1;
1+
1#
#80000
b111 "
b101 "
b100 "
04
00
1,
1$
02
0;
0+
0#
#100000
b101 "
14
0$
1;
1+
1#
#120000
b111 "
b110 "
04
10
1$
19
12
0;
0+
0#
#140000
b111 "
14
0$
1;
1+
1#
#160000
b11 "
b1 "
b0 "
04
00
0,
1$
1:
09
0;
0:
0+
0#
1;
1+
1#
0;
0+
0#
#180000
b1 "
14
0$
1;
1+
1#
#200000
b11 "
b10 "
04
10
1$
0;
0+
0#
#220000
b11 "
14
0$
1;
1+
1#
#240000
b111 "
b101 "
b100 "
04
00
1,
1$
02
0;
0+
0#
#260000
b101 "
14
0$
1;
1+
1#
#280000
b111 "
b110 "
04
10
1$
19
12
0;
0+
0#
#300000
b111 "
14
0$
1;
1+
1#
#320000
b11 "
b1 "
b0 "
04
00
0,
1$
1:
09
0;
0:
0+
0#
1;
1+
1#
0;
0+
0#
#340000
b1 "
14
0$
1;
1+
1#
#360000
b11 "
b10 "
04
10
1$
0;
0+
0#
#380000
b11 "
14
0$
1;
1+
1#
#400000
b111 "
b101 "
b100 "
04
00
1,
1$
02
0;
0+
0#
#420000
b101 "
14
0$
1;
1+
1#
#440000
b111 "
b110 "
04
10
1$
19
12
0;
0+
0#
#460000
b111 "
14
0$
1;
1+
1#
#480000
b11 "
b1 "
b0 "
04
00
0,
1$
1:
09
0;
0:
0+
0#
1;
1+
1#
0;
0+
0#
#500000
b1 "
14
0$
1;
1+
1#
#520000
b11 "
b10 "
04
10
1$
0;
0+
0#
#540000
b11 "
14
0$
1;
1+
1#
#560000
b111 "
b101 "
b100 "
04
00
1,
1$
02
0;
0+
0#
#580000
b101 "
14
0$
1;
1+
1#
#600000
b111 "
b110 "
04
10
1$
19
12
0;
0+
0#
#620000
b111 "
14
0$
1;
1+
1#
#640000
b11 "
b1 "
b0 "
04
00
0,
1$
1:
09
0;
0:
0+
0#
1;
1+
1#
0;
0+
0#
#660000
b1 "
14
0$
1;
1+
1#
#680000
b11 "
b10 "
04
10
1$
0;
0+
0#
#700000
b11 "
14
0$
1;
1+
1#
#720000
b111 "
b101 "
b100 "
04
00
1,
1$
02
0;
0+
0#
#740000
b101 "
14
0$
1;
1+
1#
#760000
b111 "
b110 "
04
10
1$
19
12
0;
0+
0#
#780000
b111 "
14
0$
1;
1+
1#
#800000
b11 "
b1 "
b0 "
04
00
0,
1$
1:
09
0;
0:
0+
0#
1;
1+
1#
0;
0+
0#
#820000
b1 "
14
0$
1;
1+
1#
#840000
b11 "
b10 "
04
10
1$
0;
0+
0#
#860000
b11 "
14
0$
1;
1+
1#
#880000
b111 "
b101 "
b100 "
04
00
1,
1$
02
0;
0+
0#
#900000
b101 "
14
0$
1;
1+
1#
#920000
b111 "
b110 "
04
10
1$
19
12
0;
0+
0#
#940000
b111 "
14
0$
1;
1+
1#
#960000
b11 "
b1 "
b0 "
04
00
0,
1$
1:
09
0;
0:
0+
0#
1;
1+
1#
0;
0+
0#
#980000
b1 "
14
0$
1;
1+
1#
